<?xml version="1.0" encoding="UTF-8" standalone="no"?>
<!-- Created with Inkscape (http://www.inkscape.org/) -->

<svg
   xmlns:dc="http://purl.org/dc/elements/1.1/"
   xmlns:cc="http://creativecommons.org/ns#"
   xmlns:rdf="http://www.w3.org/1999/02/22-rdf-syntax-ns#"
   xmlns:svg="http://www.w3.org/2000/svg"
   xmlns="http://www.w3.org/2000/svg"
   xmlns:sodipodi="http://sodipodi.sourceforge.net/DTD/sodipodi-0.dtd"
   xmlns:inkscape="http://www.inkscape.org/namespaces/inkscape"
   width="210mm"
   height="297mm"
   viewBox="0 0 744.09448819 1052.3622047"
   id="svg2"
   version="1.1"
   inkscape:version="0.91 r13725"
   sodipodi:docname="Bottom.svg">
  <defs
     id="defs4" />
  <sodipodi:namedview
     id="base"
     pagecolor="#ffffff"
     bordercolor="#666666"
     borderopacity="1.0"
     inkscape:pageopacity="0.0"
     inkscape:pageshadow="2"
     inkscape:zoom="0.24748737"
     inkscape:cx="-1018.7917"
     inkscape:cy="651.55351"
     inkscape:document-units="px"
     inkscape:current-layer="layer1"
     showgrid="false"
     inkscape:window-width="1280"
     inkscape:window-height="706"
     inkscape:window-x="-11"
     inkscape:window-y="0"
     inkscape:window-maximized="0" />
  <metadata
     id="metadata7">
    <rdf:RDF>
      <cc:Work
         rdf:about="">
        <dc:format>image/svg+xml</dc:format>
        <dc:type
           rdf:resource="http://purl.org/dc/dcmitype/StillImage" />
        <dc:title />
      </cc:Work>
    </rdf:RDF>
  </metadata>
  <g
     inkscape:label="Ebene 1"
     inkscape:groupmode="layer"
     id="layer1">
    <rect
       ry="0.00098578585"
       y="696.07855"
       x="-359.99445"
       height="364.84952"
       width="864.45581"
       id="rect3338"
       style="opacity:0.28400005;fill:#000000;fill-opacity:1;fill-rule:nonzero;stroke:#000000;stroke-width:0.1111381;stroke-miterlimit:4;stroke-dasharray:none;stroke-opacity:1" />
    <g
       id="g3566"
       transform="translate(1.7716675,0)">
      <g
         transform="translate(67.322845,-129.33071)"
         id="g3372">
        <circle
           style="opacity:0.28400005;fill:#000000;fill-opacity:1;fill-rule:nonzero;stroke:#000000;stroke-width:0.04019731;stroke-miterlimit:4;stroke-dasharray:none;stroke-opacity:1"
           id="path3342"
           cx="-306.90042"
           cy="1007.834"
           r="53.129509" />
        <circle
           r="53.129509"
           cy="883.81824"
           cx="-306.90042"
           id="circle3346"
           style="opacity:0.28400005;fill:#000000;fill-opacity:1;fill-rule:nonzero;stroke:#000000;stroke-width:0.04019731;stroke-miterlimit:4;stroke-dasharray:none;stroke-opacity:1" />
        <circle
           r="53.129509"
           cy="1007.834"
           cx="-182.88467"
           id="circle3348"
           style="opacity:0.28400005;fill:#000000;fill-opacity:1;fill-rule:nonzero;stroke:#000000;stroke-width:0.04019731;stroke-miterlimit:4;stroke-dasharray:none;stroke-opacity:1" />
        <circle
           style="opacity:0.28400005;fill:#000000;fill-opacity:1;fill-rule:nonzero;stroke:#000000;stroke-width:0.04019731;stroke-miterlimit:4;stroke-dasharray:none;stroke-opacity:1"
           id="circle3350"
           cx="-182.88467"
           cy="883.81824"
           r="53.129509" />
        <circle
           style="opacity:0.28400005;fill:#000000;fill-opacity:1;fill-rule:nonzero;stroke:#000000;stroke-width:0.04019731;stroke-miterlimit:4;stroke-dasharray:none;stroke-opacity:1"
           id="circle3352"
           cx="-58.868927"
           cy="1007.834"
           r="53.129509" />
        <circle
           r="53.129509"
           cy="883.81824"
           cx="-58.868927"
           id="circle3354"
           style="opacity:0.28400005;fill:#000000;fill-opacity:1;fill-rule:nonzero;stroke:#000000;stroke-width:0.04019731;stroke-miterlimit:4;stroke-dasharray:none;stroke-opacity:1" />
        <circle
           r="53.129509"
           cy="1007.834"
           cx="65.14682"
           id="circle3356"
           style="opacity:0.28400005;fill:#000000;fill-opacity:1;fill-rule:nonzero;stroke:#000000;stroke-width:0.04019731;stroke-miterlimit:4;stroke-dasharray:none;stroke-opacity:1" />
        <circle
           style="opacity:0.28400005;fill:#000000;fill-opacity:1;fill-rule:nonzero;stroke:#000000;stroke-width:0.04019731;stroke-miterlimit:4;stroke-dasharray:none;stroke-opacity:1"
           id="circle3358"
           cx="65.14682"
           cy="883.81824"
           r="53.129509" />
        <circle
           style="opacity:0.28400005;fill:#000000;fill-opacity:1;fill-rule:nonzero;stroke:#000000;stroke-width:0.04019731;stroke-miterlimit:4;stroke-dasharray:none;stroke-opacity:1"
           id="circle3360"
           cx="189.16257"
           cy="1007.834"
           r="53.129509" />
        <circle
           r="53.129509"
           cy="883.81824"
           cx="189.16257"
           id="circle3362"
           style="opacity:0.28400005;fill:#000000;fill-opacity:1;fill-rule:nonzero;stroke:#000000;stroke-width:0.04019731;stroke-miterlimit:4;stroke-dasharray:none;stroke-opacity:1" />
        <circle
           r="53.129509"
           cy="1007.834"
           cx="313.17831"
           id="circle3364"
           style="opacity:0.28400005;fill:#000000;fill-opacity:1;fill-rule:nonzero;stroke:#000000;stroke-width:0.04019731;stroke-miterlimit:4;stroke-dasharray:none;stroke-opacity:1" />
        <circle
           style="opacity:0.28400005;fill:#000000;fill-opacity:1;fill-rule:nonzero;stroke:#000000;stroke-width:0.04019731;stroke-miterlimit:4;stroke-dasharray:none;stroke-opacity:1"
           id="circle3366"
           cx="313.17831"
           cy="883.81824"
           r="53.129509" />
      </g>
      <circle
         r="12.366696"
         cy="936.96783"
         cx="447.82401"
         id="path3386"
         style="opacity:0.28400005;fill:#000000;fill-opacity:1;fill-rule:nonzero;stroke:#000000;stroke-width:0.06975757;stroke-miterlimit:4;stroke-dasharray:none;stroke-opacity:1" />
      <circle
         style="opacity:0.28400005;fill:#000000;fill-opacity:1;fill-rule:nonzero;stroke:#000000;stroke-width:0.06975757;stroke-miterlimit:4;stroke-dasharray:none;stroke-opacity:1"
         id="circle3388"
         cx="-306.90042"
         cy="936.96783"
         r="12.366696" />
    </g>
  </g>
</svg>
